Lab2/Advanced/2-3/2-3.sim/sim_1/behav/xsim/Carry_Look_Ahead_Adder_8bit_t.vcd
$date
   Wed Oct 11 22:24:47 2023
$end
$version
  2020.2
$end
$timescale
  1ps
$end
$scope module Carry_Look_Ahead_Adder_8bit_t $end
$var reg 8 ! a [7:0] $end
$var reg 8 " b [7:0] $end
$var wire 8 # sum [7:0] $end
$var reg 1 $ cin $end
$var wire 1 % cout $end
$var reg 1 & error $end
$var reg 9 ' testsum [8:0] $end
$scope module adder $end
$var wire 8 ( a [7:0] $end
$var wire 8 ) b [7:0] $end
$var wire 1 * c0 $end
$var wire 8 # s [7:0] $end
$var wire 1 % c8 $end
$var wire 8 + p [7:0] $end
$var wire 8 , g [7:0] $end
$var wire 8 - c [7:0] $end
$var wire 8 . cout [7:0] $end
$var wire 1 / p03 $end
$var wire 1 0 g03 $end
$var wire 1 1 p47 $end
$var wire 1 2 g47 $end
$scope module x1[7] $end
$var wire 1 3 a $end
$var wire 1 4 b $end
$var wire 1 5 out $end
$var wire 1 6 temp1 $end
$var wire 1 7 temp2 $end
$var wire 1 8 na $end
$var wire 1 9 nb $end
$upscope $end
$scope module x1[6] $end
$var wire 1 : a $end
$var wire 1 ; b $end
$var wire 1 < out $end
$var wire 1 = temp1 $end
$var wire 1 > temp2 $end
$var wire 1 ? na $end
$var wire 1 @ nb $end
$upscope $end
$scope module x1[5] $end
$var wire 1 A a $end
$var wire 1 B b $end
$var wire 1 C out $end
$var wire 1 D temp1 $end
$var wire 1 E temp2 $end
$var wire 1 F na $end
$var wire 1 G nb $end
$upscope $end
$scope module x1[4] $end
$var wire 1 H a $end
$var wire 1 I b $end
$var wire 1 J out $end
$var wire 1 K temp1 $end
$var wire 1 L temp2 $end
$var wire 1 M na $end
$var wire 1 N nb $end
$upscope $end
$scope module x1[3] $end
$var wire 1 O a $end
$var wire 1 P b $end
$var wire 1 Q out $end
$var wire 1 R temp1 $end
$var wire 1 S temp2 $end
$var wire 1 T na $end
$var wire 1 U nb $end
$upscope $end
$scope module x1[2] $end
$var wire 1 V a $end
$var wire 1 W b $end
$var wire 1 X out $end
$var wire 1 Y temp1 $end
$var wire 1 Z temp2 $end
$var wire 1 [ na $end
$var wire 1 \ nb $end
$upscope $end
$scope module x1[1] $end
$var wire 1 ] a $end
$var wire 1 ^ b $end
$var wire 1 _ out $end
$var wire 1 ` temp1 $end
$var wire 1 a temp2 $end
$var wire 1 b na $end
$var wire 1 c nb $end
$upscope $end
$scope module x1[0] $end
$var wire 1 d a $end
$var wire 1 e b $end
$var wire 1 f out $end
$var wire 1 g temp1 $end
$var wire 1 h temp2 $end
$var wire 1 i na $end
$var wire 1 j nb $end
$upscope $end
$scope module a1[7] $end
$var wire 1 3 a $end
$var wire 1 4 b $end
$var wire 1 k out $end
$var wire 1 l temp $end
$upscope $end
$scope module a1[6] $end
$var wire 1 : a $end
$var wire 1 ; b $end
$var wire 1 m out $end
$var wire 1 n temp $end
$upscope $end
$scope module a1[5] $end
$var wire 1 A a $end
$var wire 1 B b $end
$var wire 1 o out $end
$var wire 1 p temp $end
$upscope $end
$scope module a1[4] $end
$var wire 1 H a $end
$var wire 1 I b $end
$var wire 1 q out $end
$var wire 1 r temp $end
$upscope $end
$scope module a1[3] $end
$var wire 1 O a $end
$var wire 1 P b $end
$var wire 1 s out $end
$var wire 1 t temp $end
$upscope $end
$scope module a1[2] $end
$var wire 1 V a $end
$var wire 1 W b $end
$var wire 1 u out $end
$var wire 1 v temp $end
$upscope $end
$scope module a1[1] $end
$var wire 1 ] a $end
$var wire 1 ^ b $end
$var wire 1 w out $end
$var wire 1 x temp $end
$upscope $end
$scope module a1[0] $end
$var wire 1 d a $end
$var wire 1 e b $end
$var wire 1 y out $end
$var wire 1 z temp $end
$upscope $end
$scope module a2 $end
$var wire 1 * a $end
$var wire 1 * b $end
$var wire 1 { out $end
$var wire 1 | temp $end
$upscope $end
$scope module c1 $end
$var wire 4 } p [3:0] $end
$var wire 4 ~ g [3:0] $end
$var wire 1 * cin $end
$var wire 3 !! cout [2:0] $end
$var wire 1 / p03 $end
$var wire 1 0 g03 $end
$var wire 1 "! p01 $end
$var wire 1 #! p02 $end
$var wire 14 $! temp [13:0] $end
$scope module a1 $end
$var wire 1 f a $end
$var wire 1 _ b $end
$var wire 1 "! out $end
$var wire 1 %! temp $end
$upscope $end
$scope module a2 $end
$var wire 1 "! a $end
$var wire 1 X b $end
$var wire 1 #! out $end
$var wire 1 &! temp $end
$upscope $end
$scope module a3 $end
$var wire 1 #! a $end
$var wire 1 Q b $end
$var wire 1 / out $end
$var wire 1 '! temp $end
$upscope $end
$scope module a7 $end
$var wire 1 f a $end
$var wire 1 * b $end
$var wire 1 (! out $end
$var wire 1 )! temp $end
$upscope $end
$scope module o1 $end
$var wire 1 y a $end
$var wire 1 (! b $end
$var wire 1 *! out $end
$var wire 1 +! temp1 $end
$var wire 1 ,! temp2 $end
$upscope $end
$scope module a8 $end
$var wire 1 "! a $end
$var wire 1 * b $end
$var wire 1 -! out $end
$var wire 1 .! temp $end
$upscope $end
$scope module a9 $end
$var wire 1 y a $end
$var wire 1 _ b $end
$var wire 1 /! out $end
$var wire 1 0! temp $end
$upscope $end
$scope module o2 $end
$var wire 1 w a $end
$var wire 1 /! b $end
$var wire 1 1! out $end
$var wire 1 2! temp1 $end
$var wire 1 3! temp2 $end
$upscope $end
$scope module o3 $end
$var wire 1 -! a $end
$var wire 1 1! b $end
$var wire 1 4! out $end
$var wire 1 5! temp1 $end
$var wire 1 6! temp2 $end
$upscope $end
$scope module a10 $end
$var wire 1 #! a $end
$var wire 1 * b $end
$var wire 1 7! out $end
$var wire 1 8! temp $end
$upscope $end
$scope module a11 $end
$var wire 1 1! a $end
$var wire 1 X b $end
$var wire 1 9! out $end
$var wire 1 :! temp $end
$upscope $end
$scope module o5 $end
$var wire 1 u a $end
$var wire 1 9! b $end
$var wire 1 ;! out $end
$var wire 1 <! temp1 $end
$var wire 1 =! temp2 $end
$upscope $end
$scope module o6 $end
$var wire 1 7! a $end
$var wire 1 ;! b $end
$var wire 1 >! out $end
$var wire 1 ?! temp1 $end
$var wire 1 @! temp2 $end
$upscope $end
$scope module a13 $end
$var wire 1 ;! a $end
$var wire 1 Q b $end
$var wire 1 A! out $end
$var wire 1 B! temp $end
$upscope $end
$scope module o7 $end
$var wire 1 s a $end
$var wire 1 A! b $end
$var wire 1 0 out $end
$var wire 1 C! temp1 $end
$var wire 1 D! temp2 $end
$upscope $end
$upscope $end
$scope module c2 $end
$var wire 4 E! p [3:0] $end
$var wire 4 F! g [3:0] $end
$var wire 1 G! cin $end
$var wire 3 H! cout [2:0] $end
$var wire 1 1 p03 $end
$var wire 1 2 g03 $end
$var wire 1 I! p01 $end
$var wire 1 J! p02 $end
$var wire 14 K! temp [13:0] $end
$scope module a1 $end
$var wire 1 J a $end
$var wire 1 C b $end
$var wire 1 I! out $end
$var wire 1 L! temp $end
$upscope $end
$scope module a2 $end
$var wire 1 I! a $end
$var wire 1 < b $end
$var wire 1 J! out $end
$var wire 1 M! temp $end
$upscope $end
$scope module a3 $end
$var wire 1 J! a $end
$var wire 1 5 b $end
$var wire 1 1 out $end
$var wire 1 N! temp $end
$upscope $end
$scope module a7 $end
$var wire 1 J a $end
$var wire 1 G! b $end
$var wire 1 O! out $end
$var wire 1 P! temp $end
$upscope $end
$scope module o1 $end
$var wire 1 q a $end
$var wire 1 O! b $end
$var wire 1 Q! out $end
$var wire 1 R! temp1 $end
$var wire 1 S! temp2 $end
$upscope $end
$scope module a8 $end
$var wire 1 I! a $end
$var wire 1 G! b $end
$var wire 1 T! out $end
$var wire 1 U! temp $end
$upscope $end
$scope module a9 $end
$var wire 1 q a $end
$var wire 1 C b $end
$var wire 1 V! out $end
$var wire 1 W! temp $end
$upscope $end
$scope module o2 $end
$var wire 1 o a $end
$var wire 1 V! b $end
$var wire 1 X! out $end
$var wire 1 Y! temp1 $end
$var wire 1 Z! temp2 $end
$upscope $end
$scope module o3 $end
$var wire 1 T! a $end
$var wire 1 X! b $end
$var wire 1 [! out $end
$var wire 1 \! temp1 $end
$var wire 1 ]! temp2 $end
$upscope $end
$scope module a10 $end
$var wire 1 J! a $end
$var wire 1 G! b $end
$var wire 1 ^! out $end
$var wire 1 _! temp $end
$upscope $end
$scope module a11 $end
$var wire 1 X! a $end
$var wire 1 < b $end
$var wire 1 `! out $end
$var wire 1 a! temp $end
$upscope $end
$scope module o5 $end
$var wire 1 m a $end
$var wire 1 `! b $end
$var wire 1 b! out $end
$var wire 1 c! temp1 $end
$var wire 1 d! temp2 $end
$upscope $end
$scope module o6 $end
$var wire 1 ^! a $end
$var wire 1 b! b $end
$var wire 1 e! out $end
$var wire 1 f! temp1 $end
$var wire 1 g! temp2 $end
$upscope $end
$scope module a13 $end
$var wire 1 b! a $end
$var wire 1 5 b $end
$var wire 1 h! out $end
$var wire 1 i! temp $end
$upscope $end
$scope module o7 $end
$var wire 1 k a $end
$var wire 1 h! b $end
$var wire 1 2 out $end
$var wire 1 j! temp1 $end
$var wire 1 k! temp2 $end
$upscope $end
$upscope $end
$scope module c3 $end
$var wire 1 / p1 $end
$var wire 1 1 p2 $end
$var wire 1 0 g1 $end
$var wire 1 2 g2 $end
$var wire 1 * cin $end
$var wire 1 G! cout1 $end
$var wire 1 % cout2 $end
$var wire 5 l! temp [4:0] $end
$scope module a1 $end
$var wire 1 / a $end
$var wire 1 * b $end
$var wire 1 m! out $end
$var wire 1 n! temp $end
$upscope $end
$scope module o1 $end
$var wire 1 0 a $end
$var wire 1 m! b $end
$var wire 1 G! out $end
$var wire 1 o! temp1 $end
$var wire 1 p! temp2 $end
$upscope $end
$scope module a2 $end
$var wire 1 1 a $end
$var wire 1 0 b $end
$var wire 1 q! out $end
$var wire 1 r! temp $end
$upscope $end
$scope module a3 $end
$var wire 1 1 a $end
$var wire 1 / b $end
$var wire 1 s! out $end
$var wire 1 t! temp $end
$upscope $end
$scope module a4 $end
$var wire 1 * a $end
$var wire 1 s! b $end
$var wire 1 u! out $end
$var wire 1 v! temp $end
$upscope $end
$scope module o2 $end
$var wire 1 q! a $end
$var wire 1 u! b $end
$var wire 1 w! out $end
$var wire 1 x! temp1 $end
$var wire 1 y! temp2 $end
$upscope $end
$scope module o3 $end
$var wire 1 2 a $end
$var wire 1 w! b $end
$var wire 1 % out $end
$var wire 1 z! temp1 $end
$var wire 1 {! temp2 $end
$upscope $end
$upscope $end
$scope module x2[7] $end
$var wire 1 e! a $end
$var wire 1 5 b $end
$var wire 1 |! out $end
$var wire 1 }! temp1 $end
$var wire 1 ~! temp2 $end
$var wire 1 !" na $end
$var wire 1 "" nb $end
$upscope $end
$scope module x2[6] $end
$var wire 1 [! a $end
$var wire 1 < b $end
$var wire 1 #" out $end
$var wire 1 $" temp1 $end
$var wire 1 %" temp2 $end
$var wire 1 &" na $end
$var wire 1 '" nb $end
$upscope $end
$scope module x2[5] $end
$var wire 1 Q! a $end
$var wire 1 C b $end
$var wire 1 (" out $end
$var wire 1 )" temp1 $end
$var wire 1 *" temp2 $end
$var wire 1 +" na $end
$var wire 1 ," nb $end
$upscope $end
$scope module x2[4] $end
$var wire 1 G! a $end
$var wire 1 J b $end
$var wire 1 -" out $end
$var wire 1 ." temp1 $end
$var wire 1 /" temp2 $end
$var wire 1 0" na $end
$var wire 1 1" nb $end
$upscope $end
$scope module x2[3] $end
$var wire 1 >! a $end
$var wire 1 Q b $end
$var wire 1 2" out $end
$var wire 1 3" temp1 $end
$var wire 1 4" temp2 $end
$var wire 1 5" na $end
$var wire 1 6" nb $end
$upscope $end
$scope module x2[2] $end
$var wire 1 4! a $end
$var wire 1 X b $end
$var wire 1 7" out $end
$var wire 1 8" temp1 $end
$var wire 1 9" temp2 $end
$var wire 1 :" na $end
$var wire 1 ;" nb $end
$upscope $end
$scope module x2[1] $end
$var wire 1 *! a $end
$var wire 1 _ b $end
$var wire 1 <" out $end
$var wire 1 =" temp1 $end
$var wire 1 >" temp2 $end
$var wire 1 ?" na $end
$var wire 1 @" nb $end
$upscope $end
$scope module x2[0] $end
$var wire 1 { a $end
$var wire 1 f b $end
$var wire 1 A" out $end
$var wire 1 B" temp1 $end
$var wire 1 C" temp2 $end
$var wire 1 D" na $end
$var wire 1 E" nb $end
$upscope $end
$upscope $end
$upscope $end
$enddefinitions $end
#0
$dumpvars
b0 !
b1 !!
1!"
b1 "
0"!
1""
b10 #
0#!
0#"
1$
bz00000001 $!
1$"
0%
1%!
1%"
0&
1&!
1&"
bx '
1'!
1'"
b0 (
1(!
0("
b1 )
0)!
1)"
1*
1*!
1*"
b1 +
1+!
1+"
b0 ,
0,!
1,"
bz -
0-!
0-"
b11 .
1.!
1."
0/
0/!
1/"
00
10!
10"
01
01!
11"
02
12!
02"
03
13!
13"
04
04!
14"
05
15!
15"
16
16!
16"
17
07!
07"
18
18!
18"
19
09!
19"
0:
1:!
1:"
0;
0;!
1;"
0<
1<!
1<"
1=
1=!
1="
1>
0>!
0>"
1?
1?!
0?"
1@
1@!
1@"
0A
0A!
0A"
0B
1B!
1B"
0C
1C!
1C"
1D
1D!
0D"
1E
b0 E!
0E"
1F
b0 F!
1G
0G!
0H
b0 H!
0I
0I!
0J
0J!
1K
bz00000000 K!
1L
1L!
1M
1M!
1N
1N!
0O
0O!
0P
1P!
0Q
0Q!
1R
1R!
1S
1S!
1T
0T!
1U
1U!
0V
0V!
0W
1W!
0X
0X!
1Y
1Y!
1Z
1Z!
1[
0[!
1\
1\!
0]
1]!
0^
0^!
0_
1_!
1`
0`!
1a
1a!
1b
0b!
1c
1c!
0d
1d!
1e
0e!
1f
1f!
0g
1g!
1h
0h!
1i
1i!
0j
1j!
0k
1k!
1l
b0 l!
0m
0m!
1n
1n!
0o
1o!
1p
1p!
0q
0q!
1r
1r!
0s
0s!
1t
1t!
0u
0u!
1v
1v!
0w
0w!
1x
1x!
0y
1y!
1z
1z!
1{
1{!
0|
0|!
b1 }
1}!
b0 ~
1~!
$end
#1000
b10 '
#2000
b0 !
b0 !!
b10 "
b10 #
0$
bz00000000 $!
1%!
0(!
b10 )
1)!
0*
0*!
b10 +
1,!
b0 .
1.!
10!
04
18!
0;
1<"
0="
1>"
1?"
0@"
0B
1B"
1C"
1D"
1E"
0I
0P
0W
1^
1_
0`
1a
0c
0e
0f
1g
1h
1j
1n!
1v!
1x
1z
0{
1|
b10 }
#4000
b0 !
b10 "
b11 #
1$
1)!
1*
b1 .
1.!
18!
1A"
1B"
0C"
0D"
1n!
1v!
1{
0|
#5000
b11 '
#6000
b0 !
b11 "
1"!
b11 #
0$
0%!
1&!
b11 )
1)!
0*
b11 +
b0 .
1.!
04
18!
0;
1A"
0B
0B"
1C"
1D"
0E"
0I
0P
0W
1^
1e
1f
0g
1h
0j
1n!
1v!
1z
0{
1|
b11 }
#8000
b0 !
b11 !!
b11 "
b100 #
1$
bz00000011 $!
1(!
0)!
1*
1*!
0,!
1-!
b111 .
0.!
14!
05!
17"
18!
18"
09"
0:"
0<"
1="
1>"
0?"
0A"
1B"
1C"
0D"
1n!
1v!
1{
0|
#9000
b100 '
#10000
b0 !
b0 !!
b100 "
0"!
b100 #
0#!
0$
bz00000000 $!
1%!
1&!
1'!
0(!
b100 )
1)!
0*
0*!
b100 +
1,!
0-!
b0 .
1.!
10!
04
04!
15!
17"
18!
08"
19"
1:!
1:"
0;
0;"
0<"
1="
1>"
1?"
1@"
0B
1B"
1C"
1D"
1E"
0I
0P
1W
1X
0Y
1Z
0\
0^
0_
1`
1a
1c
0e
0f
1g
1h
1j
1n!
1v
1v!
1x
1z
0{
1|
b100 }
#12000
b0 !
b100 "
b101 #
1$
1)!
1*
b1 .
1.!
18!
1A"
1B"
0C"
0D"
1n!
1v!
1{
0|
#13000
b101 '
#14000
b0 !
b101 "
b101 #
0$
1%!
b101 )
1)!
0*
b101 +
b0 .
1.!
04
18!
0;
1A"
0B
0B"
1C"
1D"
0E"
0I
0P
1W
0^
1e
1f
0g
1h
0j
1n!
1v!
1z
0{
1|
b101 }
#16000
b0 !
b1 !!
b101 "
b110 #
1$
bz00000001 $!
1(!
0)!
1*
1*!
0,!
b11 .
1.!
18!
1<"
1="
0>"
0?"
0A"
1B"
1C"
0D"
1n!
1v!
1{
0|
#17000
b110 '
#18000
b0 !
b0 !!
b110 "
b110 #
0$
bz00000000 $!
1%!
0(!
b110 )
1)!
0*
0*!
b110 +
1,!
b0 .
1.!
10!
04
18!
0;
1<"
0="
1>"
1?"
0@"
0B
1B"
1C"
1D"
1E"
0I
0P
1W
1^
1_
0`
1a
0c
0e
0f
1g
1h
1j
1n!
1v!
1x
1z
0{
1|
b110 }
#20000
b0 !
b110 "
b111 #
1$
1)!
1*
b1 .
1.!
18!
1A"
1B"
0C"
0D"
1n!
1v!
1{
0|
#21000
b111 '
#22000
b0 !
b111 "
1"!
b111 #
1#!
0$
0%!
0&!
1'!
b111 )
1)!
0*
b111 +
b0 .
1.!
04
18!
0;
1A"
0B
0B"
1C"
1D"
0E"
0I
0P
1W
1^
1e
1f
0g
1h
0j
1n!
1v!
1z
0{
1|
b111 }
#24000
b0 !
b111 !!
b111 "
b1000 #
1$
bz00010011 $!
1(!
0)!
1*
1*!
0,!
1-!
b1111 .
0.!
12"
13"
14!
04"
05!
05"
17!
07"
08!
18"
19"
0:"
0<"
1="
1>!
1>"
0?!
0?"
0A"
1B"
1C"
0D"
1n!
1v!
1{
0|
#25000
b1000 '
#26000
b0 !
b0 !!
b1000 "
0"!
b1000 #
0#!
0$
bz00000000 $!
1%!
1&!
1'!
0(!
b1000 )
1)!
0*
0*!
b1000 +
1,!
0-!
b0 .
1.!
0/
10!
12"
03"
04
04!
14"
15!
15"
06"
07!
07"
18!
18"
19"
1:!
1:"
0;
1;"
0<"
1="
0>!
1>"
1?!
1?"
1@"
0B
1B!
1B"
1C"
1D"
1E"
0I
1P
1Q
0R
1S
0U
0W
0X
1Y
1Z
1\
0^
0_
1`
1a
1c
0e
0f
1g
1h
1j
1n!
1t
1t!
1v
1v!
1x
1z
0{
1|
b1000 }
#28000
b0 !
b1000 "
b1001 #
1$
1)!
1*
b1 .
1.!
18!
1A"
1B"
0C"
0D"
1n!
1v!
1{
0|
#29000
b1001 '
#30000
b0 !
b1001 "
b1001 #
0$
1%!
b1001 )
1)!
0*
b1001 +
b0 .
1.!
04
18!
0;
1A"
0B
0B"
1C"
1D"
0E"
0I
1P
0W
0^
1e
1f
0g
1h
0j
1n!
1v!
1z
0{
1|
b1001 }
#32000
b0 !
b1 !!
b1001 "
b1010 #
1$
bz00000001 $!
1(!
0)!
1*
1*!
0,!
b11 .
1.!
18!
1<"
1="
0>"
0?"
0A"
1B"
1C"
0D"
1n!
1v!
1{
0|
#33000
b1010 '
#34000
b0 !
b0 !!
b1010 "
b1010 #
0$
bz00000000 $!
1%!
0(!
b1010 )
1)!
0*
0*!
b1010 +
1,!
b0 .
1.!
10!
04
18!
0;
1<"
0="
1>"
1?"
0@"
0B
1B"
1C"
1D"
1E"
0I
1P
0W
1^
1_
0`
1a
0c
0e
0f
1g
1h
1j
1n!
1v!
1x
1z
0{
1|
b1010 }
#36000
b0 !
b1010 "
b1011 #
1$
1)!
1*
b1 .
1.!
18!
1A"
1B"
0C"
0D"
1n!
1v!
1{
0|
#37000
b1011 '
#38000
b0 !
b1011 "
1"!
b1011 #
0$
0%!
1&!
b1011 )
1)!
0*
b1011 +
b0 .
1.!
04
18!
0;
1A"
0B
0B"
1C"
1D"
0E"
0I
1P
0W
1^
1e
1f
0g
1h
0j
1n!
1v!
1z
0{
1|
b1011 }
#40000
b0 !
b11 !!
b1011 "
b1100 #
1$
bz00000011 $!
1(!
0)!
1*
1*!
0,!
1-!
b111 .
0.!
14!
05!
17"
18!
18"
09"
0:"
0<"
1="
1>"
0?"
0A"
1B"
1C"
0D"
1n!
1v!
1{
0|
#41000
b1100 '
#42000
b0 !
b0 !!
b1100 "
0"!
b1100 #
0#!
0$
bz00000000 $!
1%!
1&!
1'!
0(!
b1100 )
1)!
0*
0*!
b1100 +
1,!
0-!
b0 .
1.!
0/
10!
04
04!
15!
17"
18!
08"
19"
1:!
1:"
0;
0;"
0<"
1="
1>"
1?"
1@"
0B
1B"
1C"
1D"
1E"
0I
1P
1W
1X
0Y
1Z
0\
0^
0_
1`
1a
1c
0e
0f
1g
1h
1j
1n!
1t!
1v
1v!
1x
1z
0{
1|
b1100 }
#44000
b0 !
b1100 "
b1101 #
1$
1)!
1*
b1 .
1.!
18!
1A"
1B"
0C"
0D"
1n!
1v!
1{
0|
#45000
b1101 '
#46000
b0 !
b1101 "
b1101 #
0$
1%!
b1101 )
1)!
0*
b1101 +
b0 .
1.!
04
18!
0;
1A"
0B
0B"
1C"
1D"
0E"
0I
1P
1W
0^
1e
1f
0g
1h
0j
1n!
1v!
1z
0{
1|
b1101 }
#48000
b0 !
b1 !!
b1101 "
b1110 #
1$
bz00000001 $!
1(!
0)!
1*
1*!
0,!
b11 .
1.!
18!
1<"
1="
0>"
0?"
0A"
1B"
1C"
0D"
1n!
1v!
1{
0|
#49000
b1110 '
#50000
b0 !
b0 !!
b1110 "
b1110 #
0$
bz00000000 $!
1%!
0(!
b1110 )
1)!
0*
0*!
b1110 +
1,!
b0 .
1.!
10!
04
18!
0;
1<"
0="
1>"
1?"
0@"
0B
1B"
1C"
1D"
1E"
0I
1P
1W
1^
1_
0`
1a
0c
0e
0f
1g
1h
1j
1n!
1v!
1x
1z
0{
1|
b1110 }
#52000
b0 !
b1110 "
b1111 #
1$
1)!
1*
b1 .
1.!
18!
1A"
1B"
0C"
0D"
1n!
1v!
1{
0|
#53000
b1111 '
#54000
b0 !
b1111 "
1"!
b1111 #
1#!
0$
0%!
0&!
0'!
b1111 )
1)!
0*
b1111 +
b0 .
1.!
1/
04
18!
0;
1A"
0B
0B"
1C"
1D"
0E"
0I
1P
1W
1^
1e
1f
0g
1h
0j
1n!
1t!
1v!
1z
0{
1|
b1111 }
#56000
b0 !
b111 !!
b1111 "
b10000 #
1$
bz00010011 $!
1(!
0)!
1*
1*!
0,!
1-!
1-"
b11111 .
0.!
1."
0/"
00"
02"
13"
14!
14"
05!
05"
17!
07"
08!
18"
19"
0:"
0<"
1="
1>!
1>"
0?!
0?"
0A"
1B"
1C"
0D"
1G!
1P!
1U!
1_!
b1 l!
1m!
0n!
0p!
1v!
1{
0|
#57000
b10000 '
#58000
b0 !
b0 !!
b10000 "
0"!
b10000 #
0#!
0$
bz00000000 $!
1%!
1&!
1'!
0(!
0("
b10000 )
1)!
1)"
0*
0*!
1*"
b10000 +
1+"
1,!
0-!
1-"
b0 .
1.!
0."
0/
1/"
10!
10"
01"
02"
13"
04
04!
14"
15!
15"
16"
07!
07"
18!
18"
19"
1:!
1:"
0;
1;"
0<"
1="
0>!
1>"
1?!
1?"
1@"
0B
1B!
1B"
1C"
1D"
b1 E!
1E"
0G!
b0 H!
1I
1J
0K
bz00000000 K!
1L
1L!
0N
0O!
0P
1P!
0Q
0Q!
1R
1S
1S!
1U
1U!
0W
0X
1Y
1Z
1\
0^
0_
1_!
1`
1a
1c
0e
0f
1g
1h
1j
b0 l!
0m!
1n!
1p!
1r
1t
1t!
1v
1v!
1x
1z
0{
1|
b0 }
#60000
b0 !
b10000 "
b10001 #
1$
1)!
1*
b1 .
1.!
18!
1A"
1B"
0C"
0D"
1n!
1v!
1{
0|
#61000
b10001 '
#62000
b0 !
b10001 "
b10001 #
0$
1%!
b10001 )
1)!
0*
b10001 +
b0 .
1.!
04
18!
0;
1A"
0B
0B"
1C"
1D"
0E"
1I
0P
0W
0^
1e
1f
0g
1h
0j
1n!
1v!
1z
0{
1|
b1 }
#64000
b0 !
b1 !!
b10001 "
b10010 #
1$
bz00000001 $!
1(!
0)!
1*
1*!
0,!
b11 .
1.!
18!
1<"
1="
0>"
0?"
0A"
1B"
1C"
0D"
1n!
1v!
1{
0|
#65000
b10010 '
#66000
b0 !
b0 !!
b10010 "
b10010 #
0$
bz00000000 $!
1%!
0(!
b10010 )
1)!
0*
0*!
b10010 +
1,!
b0 .
1.!
10!
04
18!
0;
1<"
0="
1>"
1?"
0@"
0B
1B"
1C"
1D"
1E"
1I
0P
0W
1^
1_
0`
1a
0c
0e
0f
1g
1h
1j
1n!
1v!
1x
1z
0{
1|
b10 }
#68000
b0 !
b10010 "
b10011 #
1$
1)!
1*
b1 .
1.!
18!
1A"
1B"
0C"
0D"
1n!
1v!
1{
0|
#69000
b10011 '
#70000
b0 !
b10011 "
1"!
b10011 #
0$
0%!
1&!
b10011 )
1)!
0*
b10011 +
b0 .
1.!
04
18!
0;
1A"
0B
0B"
1C"
1D"
0E"
1I
0P
0W
1^
1e
1f
0g
1h
0j
1n!
1v!
1z
0{
1|
b11 }
#72000
b0 !
b11 !!
b10011 "
b10100 #
1$
bz00000011 $!
1(!
0)!
1*
1*!
0,!
1-!
b111 .
0.!
14!
05!
17"
18!
18"
09"
0:"
0<"
1="
1>"
0?"
0A"
1B"
1C"
0D"
1n!
1v!
1{
0|
#73000
b10100 '
#74000
b0 !
b0 !!
b10100 "
0"!
b10100 #
0#!
0$
bz00000000 $!
1%!
1&!
1'!
0(!
b10100 )
1)!
0*
0*!
b10100 +
1,!
0-!
b0 .
1.!
10!
04
04!
15!
17"
18!
08"
19"
1:!
1:"
0;
0;"
0<"
1="
1>"
1?"
1@"
0B
1B"
1C"
1D"
1E"
1I
0P
1W
1X
0Y
1Z
0\
0^
0_
1`
1a
1c
0e
0f
1g
1h
1j
1n!
1v
1v!
1x
1z
0{
1|
b100 }
#76000
b0 !
b10100 "
b10101 #
1$
1)!
1*
b1 .
1.!
18!
1A"
1B"
0C"
0D"
1n!
1v!
1{
0|
#77000
b10101 '
#78000
b0 !
b10101 "
b10101 #
0$
1%!
b10101 )
1)!
0*
b10101 +
b0 .
1.!
04
18!
0;
1A"
0B
0B"
1C"
1D"
0E"
1I
0P
1W
0^
1e
1f
0g
1h
0j
1n!
1v!
1z
0{
1|
b101 }
#80000
b0 !
b1 !!
b10101 "
b10110 #
1$
bz00000001 $!
1(!
0)!
1*
1*!
0,!
b11 .
1.!
18!
1<"
1="
0>"
0?"
0A"
1B"
1C"
0D"
1n!
1v!
1{
0|
#81000
b10110 '
#82000
b0 !
b0 !!
b10110 "
b10110 #
0$
bz00000000 $!
1%!
0(!
b10110 )
1)!
0*
0*!
b10110 +
1,!
b0 .
1.!
10!
04
18!
0;
1<"
0="
1>"
1?"
0@"
0B
1B"
1C"
1D"
1E"
1I
0P
1W
1^
1_
0`
1a
0c
0e
0f
1g
1h
1j
1n!
1v!
1x
1z
0{
1|
b110 }
#84000
b0 !
b10110 "
b10111 #
1$
1)!
1*
b1 .
1.!
18!
1A"
1B"
0C"
0D"
1n!
1v!
1{
0|
#85000
b10111 '
#86000
b0 !
b10111 "
1"!
b10111 #
1#!
0$
0%!
0&!
1'!
b10111 )
1)!
0*
b10111 +
b0 .
1.!
04
18!
0;
1A"
0B
0B"
1C"
1D"
0E"
1I
0P
1W
1^
1e
1f
0g
1h
0j
1n!
1v!
1z
0{
1|
b111 }
#88000
b0 !
b111 !!
b10111 "
b11000 #
1$
bz00010011 $!
1(!
0)!
1*
1*!
0,!
1-!
b1111 .
0.!
12"
13"
14!
04"
05!
05"
17!
07"
08!
18"
19"
0:"
0<"
1="
1>!
1>"
0?!
0?"
0A"
1B"
1C"
0D"
1n!
1v!
1{
0|
#89000
b11000 '
#90000
b0 !
b0 !!
b11000 "
0"!
b11000 #
0#!
0$
bz00000000 $!
1%!
1&!
1'!
0(!
b11000 )
1)!
0*
0*!
b11000 +
1,!
0-!
b0 .
1.!
0/
10!
12"
03"
04
04!
14"
15!
15"
06"
07!
07"
18!
18"
19"
1:!
1:"
0;
1;"
0<"
1="
0>!
1>"
1?!
1?"
1@"
0B
1B!
1B"
1C"
1D"
1E"
1I
1P
1Q
0R
1S
0U
0W
0X
1Y
1Z
1\
0^
0_
1`
1a
1c
0e
0f
1g
1h
1j
1n!
1t
1t!
1v
1v!
1x
1z
0{
1|
b1000 }
#92000
b0 !
b11000 "
b11001 #
1$
1)!
1*
b1 .
1.!
18!
1A"
1B"
0C"
0D"
1n!
1v!
1{
0|
#93000
b11001 '
#94000
b0 !
b11001 "
b11001 #
0$
1%!
b11001 )
1)!
0*
b11001 +
b0 .
1.!
04
18!
0;
1A"
0B
0B"
1C"
1D"
0E"
1I
1P
0W
0^
1e
1f
0g
1h
0j
1n!
1v!
1z
0{
1|
b1001 }
#96000
b0 !
b1 !!
b11001 "
b11010 #
1$
bz00000001 $!
1(!
0)!
1*
1*!
0,!
b11 .
1.!
18!
1<"
1="
0>"
0?"
0A"
1B"
1C"
0D"
1n!
1v!
1{
0|
#97000
b11010 '
#98000
b0 !
b0 !!
b11010 "
b11010 #
0$
bz00000000 $!
1%!
0(!
b11010 )
1)!
0*
0*!
b11010 +
1,!
b0 .
1.!
10!
04
18!
0;
1<"
0="
1>"
1?"
0@"
0B
1B"
1C"
1D"
1E"
1I
1P
0W
1^
1_
0`
1a
0c
0e
0f
1g
1h
1j
1n!
1v!
1x
1z
0{
1|
b1010 }
#100000
b0 !
b11010 "
b11011 #
1$
1)!
1*
b1 .
1.!
18!
1A"
1B"
0C"
0D"
1n!
1v!
1{
0|
#101000
b11011 '
#102000
b0 !
b11011 "
1"!
b11011 #
0$
0%!
1&!
b11011 )
1)!
0*
b11011 +
b0 .
1.!
04
18!
0;
1A"
0B
0B"
1C"
1D"
0E"
1I
1P
0W
1^
1e
1f
0g
1h
0j
1n!
1v!
1z
0{
1|
b1011 }
